(Even More) Exciting Data Visualizations with ggplot2 Extensions
…
Styling Labels with {ggtext}

wilkelab.org/ggtext

Styling Labels with {ggtext}

friends <- readr::read_csv(
  "https://cedricscherer.com/data/friends-mentions-partners.csv"
)

friends

# A tibble: 725 × 6
      id season episode key               partners          mentions
   <dbl>  <dbl>   <dbl> <chr>             <chr>                <dbl>
 1     1      1       1 Ross & Rachel     Ross & Rachel            4
 2     1      1       1 Rachel & Joey     Rachel & Joey            1
 3     2      1       2 Ross & Rachel     Ross & Rachel            1
 4     2      1       2 Ross              Ross & Carol             2
 5     2      1       2 Rachel & Joey     Rachel & Joey            1
 6     2      1       2 Rachel            Rachel & Barry           3
 7     2      1       2 Monica & Chandler Monica & Chandler        1
 8     5      1       5 Ross & Rachel     Ross & Rachel            3
 9     5      1       5 Ross              Ross & Carol             1
10     5      1       5 Chandler          Chandler & Janice        2
# ℹ 715 more rows
…
Styling Labels with {ggtext}

friends |> 
  mutate(key = if_else(
    !partners %in% c("Ross & Rachel", "Rachel & Joey", "Monica & Chandler"),
    word(partners, 1), partners
  )) |> 
  left_join(
    match_colors
  )

# A tibble: 725 × 7
      id season episode key               partners          mentions color  
   <dbl>  <dbl>   <dbl> <chr>             <chr>                <dbl> <chr>  
 1     1      1       1 Ross & Rachel     Ross & Rachel            4 #d86b1d
 2     1      1       1 Rachel & Joey     Rachel & Joey            1 #882f20
 3     2      1       2 Ross & Rachel     Ross & Rachel            1 #d86b1d
 4     2      1       2 Ross              Ross & Carol             2 #f6ab18
 5     2      1       2 Rachel & Joey     Rachel & Joey            1 #882f20
 6     2      1       2 Rachel            Rachel & Barry           3 #ba2a22
 7     2      1       2 Monica & Chandler Monica & Chandler        1 #774f78
 8     5      1       5 Ross & Rachel     Ross & Rachel            3 #d86b1d
 9     5      1       5 Ross              Ross & Carol             1 #f6ab18
10     5      1       5 Chandler          Chandler & Janice        2 #48508c
# ℹ 715 more rows
…
Styling Labels with {ggtext}

friends_render |> select(key, color, partners) |> unique()

# A tibble: 25 × 3
   key               color   partners                                      
   <chr>             <chr>   <chr>                                         
 1 Ross & Rachel     #d86b1d <b style='color:#d86b1d'>Ross & Rachel</b>    
 2 Rachel & Joey     #882f20 <b style='color:#882f20'>Rachel & Joey</b>    
 3 Ross              #f6ab18 <b style='color:#f6ab18'>Ross</b> & Carol     
 4 Rachel            #ba2a22 <b style='color:#ba2a22'>Rachel</b> & Barry   
 5 Monica & Chandler #774f78 <b style='color:#774f78'>Monica & Chandler</b>
 6 Chandler          #48508c <b style='color:#48508c'>Chandler</b> & Janice
 7 Rachel            #ba2a22 <b style='color:#ba2a22'>Rachel</b> & Paolo   
 8 Phoebe            #5b7233 <b style='color:#5b7233'>Phoebe</b> & David   
 9 Rachel            #ba2a22 <b style='color:#ba2a22'>Rachel</b> & Tag     
10 Ross              #f6ab18 <b style='color:#f6ab18'>Ross</b> & Julie     
# ℹ 15 more rows
…
